Participant_ID,Participant_Sex,Emotion_Condition,Subjective_Valence,Recall
1S,Female,Neutral,0.5208333333333428,TRUE
1S,Female,Neutral,4.166666666666657,FALSE
1S,Female,Neutral,25.52083333333334,TRUE
1S,Female,Neutral,0,FALSE
1S,Female,Neutral,45.83333333333334,FALSE
1S,Female,Neutral,0,FALSE
1S,Female,Negative,-32.8125,FALSE
1S,Female,Negative,-1.041666666666657,FALSE
1S,Female,Negative,-2.083333333333343,FALSE
1S,Female,Negative,1.041666666666657,FALSE
1S,Female,Negative,-36.97916666666665,TRUE
1S,Female,Negative,-65.10416666666667,FALSE
1S,Female,Neutral,1.5625,FALSE
1S,Female,Neutral,-2.083333333333343,FALSE
1S,Female,Negative,-82.29166666666667,FALSE
1S,Female,Negative,-37.5,FALSE
1S,Female,Neutral,-2.604166666666657,FALSE
1S,Female,Negative,-1.5625,FALSE
1S,Female,Neutral,-0.5208333333333428,FALSE
1S,Female,Neutral,-2.604166666666657,FALSE
1S,Female,Negative,-55.72916666666667,FALSE
1S,Female,Negative,-15.625,TRUE
1S,Female,Negative,-99.47916666666667,TRUE
1S,Female,Negative,-97.39583333333333,FALSE
1S,Female,Neutral,47.91666666666666,FALSE
1S,Female,Negative,-97.91666666666667,TRUE
1S,Female,Negative,-100,FALSE
1S,Female,Neutral,-0.5208333333333428,FALSE
1S,Female,Neutral,0.5208333333333428,FALSE
1S,Female,Negative,-2.083333333333343,FALSE
1S,Female,Neutral,51.5625,TRUE
1S,Female,Neutral,0,FALSE
1S,Female,Neutral,0,FALSE
1S,Female,Neutral,99.47916666666666,TRUE
1S,Female,Negative,2.604166666666657,TRUE
1S,Female,Negative,-100,FALSE
1S,Female,Negative,-100,TRUE
1S,Female,Negative,-100,FALSE
1S,Female,Negative,2.083333333333343,TRUE
1S,Female,Neutral,-1.5625,TRUE
1S,Female,Neutral,44.79166666666666,TRUE
1S,Female,Negative,-48.95833333333335,FALSE
1S,Female,Negative,-100,FALSE
1S,Female,Neutral,0,FALSE
1S,Female,Negative,-100,FALSE
1S,Female,Neutral,-1.041666666666657,FALSE
1S,Female,Neutral,1.041666666666657,TRUE
1S,Female,Neutral,100,TRUE
2S,Female,Neutral,0,FALSE
2S,Female,Neutral,46.35416666666666,FALSE
2S,Female,Neutral,100,FALSE
2S,Female,Negative,-56.25,TRUE
2S,Female,Negative,-35.9375,TRUE
2S,Female,Neutral,23.95833333333334,FALSE
2S,Female,Neutral,15.625,TRUE
2S,Female,Negative,-22.91666666666666,TRUE
2S,Female,Neutral,12.5,FALSE
2S,Female,Neutral,16.66666666666666,TRUE
2S,Female,Neutral,33.85416666666666,TRUE
2S,Female,Negative,-26.5625,FALSE
2S,Female,Neutral,0.5208333333333428,TRUE
2S,Female,Negative,-30.20833333333334,FALSE
2S,Female,Negative,-100,FALSE
2S,Female,Negative,-39.0625,FALSE
2S,Female,Neutral,33.85416666666666,TRUE
2S,Female,Neutral,40.10416666666666,FALSE
2S,Female,Neutral,45.83333333333334,TRUE
2S,Female,Neutral,46.875,TRUE
2S,Female,Negative,-70.83333333333333,TRUE
2S,Female,Negative,51.04166666666666,TRUE
2S,Female,Neutral,48.95833333333334,TRUE
2S,Female,Negative,-54.16666666666667,FALSE
2S,Female,Negative,-64.58333333333333,TRUE
2S,Female,Negative,-69.79166666666667,FALSE
2S,Female,Neutral,-0.5208333333333428,FALSE
2S,Female,Negative,28.64583333333334,FALSE
2S,Female,Negative,-77.60416666666667,TRUE
2S,Female,Neutral,84.89583333333334,FALSE
2S,Female,Neutral,46.35416666666666,FALSE
2S,Female,Neutral,55.72916666666666,FALSE
2S,Female,Negative,-39.58333333333335,FALSE
2S,Female,Neutral,-23.4375,FALSE
2S,Female,Neutral,38.54166666666666,FALSE
2S,Female,Negative,-78.125,TRUE
2S,Female,Neutral,38.02083333333334,FALSE
2S,Female,Negative,-92.1875,TRUE
2S,Female,Negative,-51.04166666666667,TRUE
2S,Female,Negative,-30.72916666666666,TRUE
2S,Female,Neutral,54.6875,FALSE
2S,Female,Negative,-48.4375,FALSE
2S,Female,Negative,-46.35416666666665,TRUE
2S,Female,Neutral,66.14583333333334,FALSE
2S,Female,Negative,-73.4375,FALSE
2S,Female,Negative,-80.20833333333333,TRUE
2S,Female,Negative,42.1875,FALSE
2S,Female,Neutral,69.27083333333334,FALSE
3S,Female,Neutral,1.464128843338216,FALSE
3S,Female,Negative,-38.4333821376281,TRUE
3S,Female,Negative,-88.94582723279649,TRUE
3S,Female,Negative,-46.85212298682284,FALSE
3S,Female,Negative,-71.74231332357249,FALSE
3S,Female,Neutral,36.96925329428987,FALSE
3S,Female,Neutral,27.4524158125915,FALSE
3S,Female,Negative,-76.86676427525623,TRUE
3S,Female,Neutral,35.50512445095166,FALSE
3S,Female,Neutral,23.060029282576892,FALSE
3S,Female,Negative,-35.87115666178624,FALSE
3S,Female,Negative,-69.18008784773059,FALSE
3S,Female,Neutral,6.588579795021943,FALSE
3S,Female,Neutral,79.4289897510981,FALSE
3S,Female,Negative,31.84480234260616,FALSE
3S,Female,Negative,18.30161054172765,FALSE
3S,Female,Neutral,0.3660322108345326,FALSE
3S,Female,Negative,-75.03660322108345,TRUE
3S,Female,Neutral,-26.72035139092239,FALSE
3S,Female,Neutral,43.55783308931188,TRUE
3S,Female,Neutral,32.21083455344069,FALSE
3S,Female,Neutral,-1.098096632503641,FALSE
3S,Female,Neutral,-2.562225475841856,FALSE
3S,Female,Negative,-67.71595900439237,TRUE
3S,Female,Neutral,2.562225475841856,FALSE
3S,Female,Negative,-95.1683748169839,FALSE
3S,Female,Negative,-100,FALSE
3S,Female,Neutral,-38.4333821376281,FALSE
3S,Female,Neutral,1.464128843338216,FALSE
3S,Female,Negative,-100,FALSE
3S,Female,Negative,-55.63689604685212,TRUE
3S,Female,Neutral,35.87115666178624,TRUE
3S,Female,Neutral,69.91215226939968,FALSE
3S,Female,Negative,-80.89311859443632,FALSE
3S,Female,Negative,-67.71595900439237,TRUE
3S,Female,Negative,-58.199121522694,FALSE
3S,Female,Negative,-94.43631039531479,FALSE
3S,Female,Negative,-72.84040995607612,FALSE
3S,Female,Negative,-100,FALSE
3S,Female,Negative,-100,FALSE
3S,Female,Neutral,10.2489019033675,TRUE
3S,Female,Neutral,87.11566617862374,FALSE
3S,Female,Neutral,70.6442166910688,FALSE
3S,Female,Neutral,59.6632503660322,TRUE
3S,Female,Negative,-64.05563689604685,FALSE
3S,Female,Negative,-32.57686676427527,TRUE
3S,Female,Neutral,-62.59150805270863,TRUE
3S,Female,Neutral,71.01024890190337,TRUE
4S,Female,Neutral,-52.08333333333333,FALSE
4S,Female,Neutral,54.16666666666666,FALSE
4S,Female,Negative,-100,FALSE
4S,Female,Negative,-39.0625,TRUE
4S,Female,Negative,-87.5,TRUE
4S,Female,Negative,-86.97916666666667,FALSE
4S,Female,Negative,-31.25,TRUE
4S,Female,Negative,-83.85416666666667,TRUE
4S,Female,Negative,-100,FALSE
4S,Female,Neutral,100,TRUE
4S,Female,Neutral,2.083333333333343,FALSE
4S,Female,Negative,-77.08333333333333,FALSE
4S,Female,Neutral,75,TRUE
4S,Female,Neutral,-0.5208333333333428,FALSE
4S,Female,Neutral,100,TRUE
4S,Female,Negative,-100,TRUE
4S,Female,Neutral,100,FALSE
4S,Female,Negative,-100,FALSE
4S,Female,Neutral,67.70833333333334,TRUE
4S,Female,Neutral,33.85416666666666,TRUE
4S,Female,Negative,-96.35416666666667,TRUE
4S,Female,Neutral,49.47916666666666,FALSE
4S,Female,Neutral,39.58333333333334,FALSE
4S,Female,Negative,-13.02083333333334,FALSE
4S,Female,Neutral,43.75,TRUE
4S,Female,Negative,-100,TRUE
4S,Female,Negative,-100,TRUE
4S,Female,Negative,-44.27083333333335,TRUE
4S,Female,Negative,-100,FALSE
4S,Female,Negative,-34.89583333333334,FALSE
4S,Female,Negative,-100,FALSE
4S,Female,Neutral,0.5208333333333428,FALSE
4S,Female,Neutral,-27.60416666666666,FALSE
4S,Female,Neutral,-35.9375,FALSE
4S,Female,Neutral,-64.58333333333333,FALSE
4S,Female,Neutral,1.5625,TRUE
4S,Female,Negative,-100,TRUE
4S,Female,Neutral,0,TRUE
4S,Female,Neutral,42.70833333333334,FALSE
4S,Female,Negative,-100,FALSE
4S,Female,Neutral,8.854166666666657,TRUE
4S,Female,Neutral,2.083333333333343,TRUE
4S,Female,Neutral,1.041666666666657,TRUE
4S,Female,Neutral,65.625,TRUE
4S,Female,Negative,-65.10416666666667,TRUE
4S,Female,Negative,-100,TRUE
4S,Female,Negative,-100,TRUE
4S,Female,Negative,-98.4375,FALSE
5S,Female,Negative,-32.29166666666666,FALSE
5S,Female,Negative,-94.27083333333333,FALSE
5S,Female,Neutral,53.125,FALSE
5S,Female,Neutral,43.22916666666666,FALSE
5S,Female,Neutral,39.58333333333334,FALSE
5S,Female,Neutral,-6.25,FALSE
5S,Female,Negative,-82.29166666666667,FALSE
5S,Female,Negative,-47.39583333333335,FALSE
5S,Female,Neutral,32.8125,TRUE
5S,Female,Neutral,2.604166666666657,TRUE
5S,Female,Neutral,25.52083333333334,FALSE
5S,Female,Neutral,39.58333333333334,FALSE
5S,Female,Neutral,40.625,FALSE
5S,Female,Negative,-89.0625,FALSE
5S,Female,Negative,-47.39583333333335,FALSE
5S,Female,Neutral,29.6875,TRUE
5S,Female,Neutral,53.64583333333334,TRUE
5S,Female,Neutral,-11.97916666666666,TRUE
5S,Female,Negative,-30.20833333333334,TRUE
5S,Female,Negative,-100,FALSE
5S,Female,Neutral,-18.75,TRUE
5S,Female,Negative,-34.375,TRUE
5S,Female,Neutral,1.5625,FALSE
5S,Female,Neutral,31.25,TRUE
5S,Female,Negative,-16.14583333333334,FALSE
5S,Female,Negative,-60.9375,TRUE
5S,Female,Neutral,3.645833333333343,FALSE
5S,Female,Negative,-74.47916666666667,TRUE
5S,Female,Negative,-37.5,FALSE
5S,Female,Negative,-80.20833333333333,FALSE
5S,Female,Negative,-72.39583333333333,FALSE
5S,Female,Negative,-53.125,TRUE
5S,Female,Neutral,-1.5625,FALSE
5S,Female,Negative,-33.85416666666666,FALSE
5S,Female,Neutral,54.6875,TRUE
5S,Female,Neutral,11.97916666666666,FALSE
5S,Female,Neutral,84.375,FALSE
5S,Female,Negative,-40.625,FALSE
5S,Female,Negative,-72.39583333333333,FALSE
5S,Female,Negative,-13.02083333333334,FALSE
5S,Female,Neutral,50.52083333333334,FALSE
5S,Female,Negative,-56.77083333333333,TRUE
5S,Female,Neutral,90.625,TRUE
5S,Female,Negative,-59.375,TRUE
5S,Female,Neutral,-13.02083333333334,FALSE
5S,Female,Neutral,35.41666666666666,FALSE
5S,Female,Negative,-72.39583333333333,TRUE
5S,Female,Negative,-94.27083333333333,TRUE
6S,Female,Negative,-100,TRUE
6S,Female,Negative,-52.34260614934114,FALSE
6S,Female,Neutral,25.62225475841875,FALSE
6S,Female,Negative,-70.64421669106882,FALSE
6S,Female,Neutral,53.80673499267937,FALSE
6S,Female,Negative,-97.36456808199121,FALSE
6S,Female,Neutral,-0.7320644216691079,FALSE
6S,Female,Negative,-98.09663250366032,FALSE
6S,Female,Neutral,80.89311859443632,TRUE
6S,Female,Neutral,-13.54319180087846,FALSE
6S,Female,Negative,-100,FALSE
6S,Female,Negative,-75.03660322108345,FALSE
6S,Female,Neutral,2.562225475841856,FALSE
6S,Female,Neutral,-16.47144948755491,FALSE
6S,Female,Neutral,35.50512445095166,FALSE
6S,Female,Neutral,-15.73938506588578,FALSE
6S,Female,Neutral,-0.3660322108345326,FALSE
6S,Female,Negative,-100,FALSE
6S,Female,Neutral,-27.4524158125915,TRUE
6S,Female,Negative,-48.31625183016106,FALSE
6S,Female,Neutral,-1.098096632503641,FALSE
6S,Female,Neutral,31.84480234260616,FALSE
6S,Female,Neutral,-1.098096632503641,FALSE
6S,Female,Negative,-99.9267935578331,FALSE
6S,Female,Neutral,28.91654465592973,FALSE
6S,Female,Negative,-99.9267935578331,FALSE
6S,Female,Negative,-64.05563689604685,TRUE
6S,Female,Neutral,0.7320644216691079,FALSE
6S,Female,Negative,-26.72035139092239,FALSE
6S,Female,Negative,-100,TRUE
6S,Female,Neutral,49.78038067349928,FALSE
6S,Female,Negative,-98.46266471449488,TRUE
6S,Female,Negative,-47.95021961932648,TRUE
6S,Female,Negative,-8.052708638360158,FALSE
6S,Female,Negative,-58.199121522694,FALSE
6S,Female,Negative,-76.13469985358712,FALSE
6S,Female,Neutral,-1.098096632503641,FALSE
6S,Female,Negative,-51.24450951683747,TRUE
6S,Female,Neutral,-11.34699853587118,TRUE
6S,Female,Negative,-22.69399707174232,FALSE
6S,Female,Neutral,42.45973645680817,FALSE
6S,Female,Neutral,-40.62957540263543,FALSE
6S,Female,Neutral,100,TRUE
6S,Female,Neutral,-72.47437774524158,FALSE
6S,Female,Negative,-100,FALSE
6S,Female,Neutral,100,FALSE
6S,Female,Negative,-100,FALSE
6S,Female,Negative,-97.36456808199121,TRUE
7S,Female,Negative,-6.770833333333343,TRUE
7S,Female,Neutral,-2.604166666666657,TRUE
7S,Female,Negative,-60.41666666666667,TRUE
7S,Female,Negative,-63.54166666666667,FALSE
7S,Female,Neutral,0,FALSE
7S,Female,Negative,-79.16666666666667,FALSE
7S,Female,Negative,-75.52083333333333,FALSE
7S,Female,Neutral,1.041666666666657,TRUE
7S,Female,Neutral,-1.5625,FALSE
7S,Female,Neutral,8.333333333333343,FALSE
7S,Female,Negative,-7.291666666666657,TRUE
7S,Female,Neutral,0.5208333333333428,FALSE
7S,Female,Neutral,17.70833333333334,TRUE
7S,Female,Negative,-100,TRUE
7S,Female,Negative,-100,TRUE
7S,Female,Neutral,10.9375,FALSE
7S,Female,Neutral,14.58333333333334,FALSE
7S,Female,Neutral,16.14583333333334,TRUE
7S,Female,Negative,-83.85416666666667,FALSE
7S,Female,Neutral,-1.041666666666657,FALSE
7S,Female,Neutral,29.16666666666666,FALSE
7S,Female,Neutral,13.02083333333334,FALSE
7S,Female,Negative,-100,TRUE
7S,Female,Negative,-38.02083333333335,TRUE
7S,Female,Negative,-9.895833333333343,TRUE
7S,Female,Negative,-23.95833333333334,FALSE
7S,Female,Neutral,30.72916666666666,FALSE
7S,Female,Neutral,-19.27083333333334,TRUE
7S,Female,Neutral,33.85416666666666,TRUE
7S,Female,Negative,-67.70833333333333,FALSE
7S,Female,Negative,0,TRUE
7S,Female,Neutral,-13.54166666666666,FALSE
7S,Female,Negative,-75.52083333333333,TRUE
7S,Female,Neutral,-1.041666666666657,FALSE
7S,Female,Negative,-100,FALSE
7S,Female,Neutral,2.083333333333343,TRUE
7S,Female,Negative,-100,FALSE
7S,Female,Negative,9.375,TRUE
7S,Female,Neutral,30.20833333333334,FALSE
7S,Female,Negative,-13.02083333333334,TRUE
7S,Female,Negative,-100,TRUE
7S,Female,Negative,-100,FALSE
7S,Female,Neutral,2.083333333333343,TRUE
7S,Female,Neutral,-0.5208333333333428,TRUE
7S,Female,Neutral,-60.41666666666667,TRUE
7S,Female,Negative,-100,FALSE
7S,Female,Neutral,1.041666666666657,TRUE
7S,Female,Negative,-100,TRUE
8S,Female,Negative,-88.02083333333333,FALSE
8S,Female,Neutral,42.1875,FALSE
8S,Female,Neutral,55.72916666666666,FALSE
8S,Female,Neutral,30.20833333333334,FALSE
8S,Female,Negative,-56.25,FALSE
8S,Female,Neutral,-1.5625,FALSE
8S,Female,Negative,-79.16666666666667,FALSE
8S,Female,Neutral,17.70833333333334,FALSE
8S,Female,Neutral,30.72916666666666,FALSE
8S,Female,Negative,-78.64583333333333,FALSE
8S,Female,Neutral,-13.02083333333334,FALSE
8S,Female,Negative,-65.625,FALSE
8S,Female,Negative,-17.70833333333334,FALSE
8S,Female,Negative,-69.27083333333333,FALSE
8S,Female,Negative,-85.41666666666667,FALSE
8S,Female,Neutral,56.77083333333334,TRUE
8S,Female,Negative,-34.89583333333334,FALSE
8S,Female,Neutral,32.8125,FALSE
8S,Female,Neutral,9.375,FALSE
8S,Female,Negative,-71.35416666666667,FALSE
8S,Female,Negative,-100,FALSE
8S,Female,Neutral,0.5208333333333428,FALSE
8S,Female,Negative,-74.47916666666667,FALSE
8S,Female,Neutral,-13.02083333333334,FALSE
8S,Female,Neutral,40.625,TRUE
8S,Female,Negative,-63.54166666666667,FALSE
8S,Female,Neutral,59.89583333333334,TRUE
8S,Female,Neutral,-1.041666666666657,TRUE
8S,Female,Negative,-81.77083333333333,FALSE
8S,Female,Neutral,9.895833333333343,FALSE
8S,Female,Neutral,72.91666666666666,FALSE
8S,Female,Neutral,27.60416666666666,TRUE
8S,Female,Negative,-35.41666666666666,FALSE
8S,Female,Neutral,14.58333333333334,FALSE
8S,Female,Negative,-87.5,FALSE
8S,Female,Neutral,16.66666666666666,FALSE
8S,Female,Negative,-75.52083333333333,TRUE
8S,Female,Negative,-36.45833333333335,FALSE
8S,Female,Neutral,10.41666666666666,FALSE
8S,Female,Negative,-82.8125,FALSE
8S,Female,Negative,33.33333333333334,TRUE
8S,Female,Neutral,1.5625,FALSE
8S,Female,Negative,-13.02083333333334,TRUE
8S,Female,Negative,-10.41666666666666,TRUE
8S,Female,Negative,-70.3125,TRUE
8S,Female,Negative,-21.35416666666666,TRUE
8S,Female,Neutral,28.125,TRUE
8S,Female,Neutral,-0.5208333333333428,TRUE
9S,Female,Neutral,36.96925329428987,FALSE
9S,Female,Neutral,65.51976573938506,FALSE
9S,Female,Negative,-27.08638360175696,TRUE
9S,Female,Negative,-83.82137628111275,FALSE
9S,Female,Negative,-84.91947291361639,FALSE
9S,Female,Negative,-25.98828696925328,FALSE
9S,Female,Neutral,-1.098096632503641,FALSE
9S,Female,Neutral,-19.03367496339676,TRUE
9S,Female,Negative,-9.150805270863856,FALSE
9S,Female,Neutral,-1.464128843338216,TRUE
9S,Female,Neutral,38.43338213762812,FALSE
9S,Female,Negative,-76.13469985358712,FALSE
9S,Female,Negative,2.928257686676432,FALSE
9S,Female,Negative,-100,FALSE
9S,Female,Neutral,100,FALSE
9S,Female,Negative,-4.758418740849194,FALSE
9S,Female,Neutral,43.55783308931188,FALSE
9S,Female,Negative,58.56515373352855,FALSE
9S,Female,Negative,55.63689604685212,FALSE
9S,Female,Neutral,58.93118594436308,FALSE
9S,Female,Negative,-71.01024890190337,FALSE
9S,Female,Neutral,0.7320644216691079,TRUE
9S,Female,Neutral,100,FALSE
9S,Female,Neutral,100,FALSE
9S,Female,Negative,42.45973645680817,FALSE
9S,Female,Neutral,100,FALSE
9S,Female,Neutral,39.5314787701318,FALSE
9S,Female,Neutral,65.8857979502196,FALSE
9S,Female,Negative,-100,FALSE
9S,Female,Neutral,62.2254758418741,FALSE
9S,Female,Negative,0,FALSE
9S,Female,Negative,-100,FALSE
9S,Female,Negative,1.464128843338216,FALSE
9S,Female,Neutral,100,FALSE
9S,Female,Neutral,100,TRUE
9S,Female,Negative,-100,FALSE
9S,Female,Negative,-100,FALSE
9S,Female,Neutral,0.7320644216691079,FALSE
9S,Female,Neutral,59.29721815519767,FALSE
9S,Female,Negative,20.13177159590045,TRUE
9S,Female,Neutral,55.27086383601758,FALSE
9S,Female,Negative,9.882869692532964,TRUE
9S,Female,Negative,-0.3660322108345326,TRUE
9S,Female,Neutral,0.3660322108345326,FALSE
9S,Female,Neutral,97.73060029282576,TRUE
9S,Female,Negative,-44.28989751098098,TRUE
9S,Female,Neutral,100,TRUE
9S,Female,Negative,-20.13177159590045,FALSE
10S,Female,Negative,-97.91666666666667,FALSE
10S,Female,Neutral,33.33333333333334,TRUE
10S,Female,Neutral,2.083333333333343,FALSE
10S,Female,Negative,40.10416666666666,FALSE
10S,Female,Neutral,63.02083333333334,FALSE
10S,Female,Neutral,-49.47916666666665,TRUE
10S,Female,Neutral,51.5625,FALSE
10S,Female,Neutral,21.875,FALSE
10S,Female,Negative,-96.875,FALSE
10S,Female,Neutral,52.60416666666666,FALSE
10S,Female,Neutral,43.75,FALSE
10S,Female,Neutral,-46.875,FALSE
10S,Female,Neutral,77.08333333333334,FALSE
10S,Female,Neutral,-24.47916666666666,FALSE
10S,Female,Negative,0,TRUE
10S,Female,Negative,-95.3125,FALSE
10S,Female,Neutral,34.89583333333334,FALSE
10S,Female,Negative,-80.72916666666667,FALSE
10S,Female,Negative,-43.75,TRUE
10S,Female,Negative,-30.20833333333334,TRUE
10S,Female,Negative,-27.08333333333334,FALSE
10S,Female,Negative,-85.41666666666667,TRUE
10S,Female,Negative,-97.91666666666667,FALSE
10S,Female,Negative,50,TRUE
10S,Female,Neutral,75.52083333333334,FALSE
10S,Female,Negative,-80.72916666666667,FALSE
10S,Female,Neutral,42.70833333333334,FALSE
10S,Female,Neutral,-37.5,FALSE
10S,Female,Negative,-72.39583333333333,FALSE
10S,Female,Negative,-60.9375,TRUE
10S,Female,Neutral,56.25,FALSE
10S,Female,Negative,-79.6875,TRUE
10S,Female,Negative,-78.64583333333333,FALSE
10S,Female,Neutral,38.54166666666666,TRUE
10S,Female,Negative,-70.3125,FALSE
10S,Female,Negative,-98.95833333333333,TRUE
10S,Female,Neutral,19.27083333333334,TRUE
10S,Female,Negative,-100,TRUE
10S,Female,Negative,-15.625,FALSE
10S,Female,Negative,-52.08333333333333,FALSE
10S,Female,Neutral,-29.6875,TRUE
10S,Female,Negative,-40.625,FALSE
10S,Female,Negative,-78.64583333333333,FALSE
10S,Female,Neutral,-30.72916666666666,TRUE
10S,Female,Neutral,52.60416666666666,FALSE
10S,Female,Neutral,57.29166666666666,TRUE
10S,Female,Neutral,99.47916666666666,TRUE
10S,Female,Neutral,36.97916666666666,TRUE
11S,Female,Negative,5.490483162518302,FALSE
11S,Female,Neutral,36.60322108345534,FALSE
11S,Female,Neutral,1.098096632503641,FALSE
11S,Female,Negative,-71.74231332357249,FALSE
11S,Female,Negative,-12.44509516837482,FALSE
11S,Female,Negative,-6.588579795021943,FALSE
11S,Female,Neutral,0,FALSE
11S,Female,Neutral,2.928257686676432,FALSE
11S,Female,Negative,-93.70424597364568,FALSE
11S,Female,Neutral,-18.66764275256223,FALSE
11S,Female,Negative,-25.25622254758417,FALSE
11S,Female,Negative,-98.09663250366032,TRUE
11S,Female,Neutral,0.3660322108345326,FALSE
11S,Female,Negative,-100,TRUE
11S,Female,Neutral,-78.69692532942898,FALSE
11S,Female,Neutral,1.830161054172748,FALSE
11S,Female,Negative,-100,TRUE
11S,Female,Negative,-50.87847730600292,FALSE
11S,Female,Neutral,-6.22254758418741,FALSE
11S,Female,Neutral,1.464128843338216,FALSE
11S,Female,Neutral,-42.09370424597365,FALSE
11S,Female,Negative,-95.53440702781846,FALSE
11S,Female,Neutral,1.098096632503641,TRUE
11S,Female,Negative,-100,TRUE
11S,Female,Neutral,17.93557833089312,TRUE
11S,Female,Negative,-88.21376281112738,TRUE
11S,Female,Neutral,-2.562225475841856,FALSE
11S,Female,Negative,-100,FALSE
11S,Female,Negative,-87.84773060029283,FALSE
11S,Female,Negative,-64.78770131771597,FALSE
11S,Female,Neutral,-0.7320644216691079,FALSE
11S,Female,Negative,0,TRUE
11S,Female,Neutral,2.196193265007324,FALSE
11S,Female,Neutral,-1.464128843338216,FALSE
11S,Female,Negative,-100,TRUE
11S,Female,Negative,-71.74231332357249,FALSE
11S,Female,Neutral,-1.830161054172748,TRUE
11S,Female,Neutral,48.6822840409956,FALSE
11S,Female,Neutral,2.562225475841856,FALSE
11S,Female,Negative,-100,TRUE
11S,Female,Neutral,20.13177159590045,FALSE
11S,Female,Negative,-100,FALSE
11S,Female,Negative,-99.19472913616399,TRUE
11S,Female,Neutral,1.098096632503641,TRUE
11S,Female,Neutral,2.928257686676432,TRUE
11S,Female,Neutral,55.27086383601758,TRUE
11S,Female,Negative,-100,TRUE
11S,Female,Negative,-96.6325036603221,FALSE
12S,Female,Neutral,28.64583333333334,FALSE
12S,Female,Negative,-26.04166666666666,FALSE
12S,Female,Negative,-100,TRUE
12S,Female,Neutral,6.770833333333343,FALSE
12S,Female,Neutral,-42.1875,FALSE
12S,Female,Neutral,2.604166666666657,TRUE
12S,Female,Neutral,-1.5625,FALSE
12S,Female,Negative,-59.375,FALSE
12S,Female,Negative,-78.64583333333333,FALSE
12S,Female,Neutral,44.79166666666666,TRUE
12S,Female,Neutral,1.041666666666657,FALSE
12S,Female,Negative,-84.89583333333333,TRUE
12S,Female,Negative,-50.52083333333333,FALSE
12S,Female,Negative,-20.83333333333334,FALSE
12S,Female,Neutral,-2.604166666666657,TRUE
12S,Female,Negative,-82.8125,FALSE
12S,Female,Neutral,0,FALSE
12S,Female,Neutral,48.4375,TRUE
12S,Female,Negative,-54.6875,FALSE
12S,Female,Negative,-100,TRUE
12S,Female,Negative,-86.45833333333333,FALSE
12S,Female,Neutral,4.6875,TRUE
12S,Female,Negative,-46.35416666666665,TRUE
12S,Female,Neutral,26.04166666666666,FALSE
12S,Female,Neutral,2.083333333333343,FALSE
12S,Female,Negative,-34.375,FALSE
12S,Female,Negative,-62.5,TRUE
12S,Female,Negative,2.604166666666657,TRUE
12S,Female,Neutral,24.47916666666666,FALSE
12S,Female,Negative,-24.47916666666666,FALSE
12S,Female,Neutral,-75.52083333333333,TRUE
12S,Female,Negative,-34.375,FALSE
12S,Female,Neutral,1.041666666666657,FALSE
12S,Female,Negative,-31.77083333333334,FALSE
12S,Female,Neutral,0,FALSE
12S,Female,Neutral,2.083333333333343,FALSE
12S,Female,Negative,-80.72916666666667,FALSE
12S,Female,Negative,-65.10416666666667,FALSE
12S,Female,Negative,-60.41666666666667,TRUE
12S,Female,Neutral,71.875,FALSE
12S,Female,Neutral,1.041666666666657,TRUE
12S,Female,Neutral,0,FALSE
12S,Female,Neutral,0,FALSE
12S,Female,Negative,-61.97916666666667,TRUE
12S,Female,Negative,-75,TRUE
12S,Female,Negative,-61.97916666666667,TRUE
12S,Female,Neutral,0.5208333333333428,FALSE
12S,Female,Neutral,1.041666666666657,FALSE
13S,Female,Negative,-88.54166666666667,FALSE
13S,Female,Neutral,68.22916666666666,FALSE
13S,Female,Neutral,42.70833333333334,FALSE
13S,Female,Negative,-50,FALSE
13S,Female,Neutral,63.54166666666666,FALSE
13S,Female,Neutral,50.52083333333334,FALSE
13S,Female,Negative,-91.14583333333333,FALSE
13S,Female,Negative,-100,FALSE
13S,Female,Neutral,-49.47916666666665,FALSE
13S,Female,Negative,-38.54166666666665,TRUE
13S,Female,Negative,-62.5,TRUE
13S,Female,Negative,-67.70833333333333,TRUE
13S,Female,Negative,-60.41666666666667,FALSE
13S,Female,Negative,2.604166666666657,FALSE
13S,Female,Neutral,0,FALSE
13S,Female,Neutral,0.5208333333333428,FALSE
13S,Female,Negative,-59.89583333333333,TRUE
13S,Female,Neutral,25.52083333333334,FALSE
13S,Female,Negative,-17.70833333333334,FALSE
13S,Female,Neutral,0,FALSE
13S,Female,Neutral,41.66666666666666,FALSE
13S,Female,Neutral,2.083333333333343,TRUE
13S,Female,Neutral,2.083333333333343,TRUE
13S,Female,Neutral,55.20833333333334,TRUE
13S,Female,Negative,-70.83333333333333,FALSE
13S,Female,Negative,-63.54166666666667,FALSE
13S,Female,Negative,-58.33333333333333,FALSE
13S,Female,Neutral,22.39583333333334,TRUE
13S,Female,Neutral,94.79166666666666,FALSE
13S,Female,Neutral,56.77083333333334,FALSE
13S,Female,Neutral,62.5,FALSE
13S,Female,Neutral,-58.85416666666667,FALSE
13S,Female,Negative,-84.375,FALSE
13S,Female,Negative,-62.5,TRUE
13S,Female,Neutral,-33.85416666666666,TRUE
13S,Female,Neutral,-0.5208333333333428,FALSE
13S,Female,Neutral,33.33333333333334,FALSE
13S,Female,Negative,-79.16666666666667,FALSE
13S,Female,Negative,-47.91666666666665,FALSE
13S,Female,Negative,-83.33333333333333,TRUE
13S,Female,Negative,-83.85416666666667,TRUE
13S,Female,Negative,-35.41666666666666,TRUE
13S,Female,Neutral,100,TRUE
13S,Female,Negative,-75,TRUE
13S,Female,Negative,-76.5625,TRUE
13S,Female,Negative,-62.5,TRUE
13S,Female,Neutral,78.125,FALSE
13S,Female,Neutral,-53.125,TRUE
14S,Female,Negative,0,FALSE
14S,Female,Negative,-28.91654465592973,FALSE
14S,Female,Neutral,-52.34260614934114,TRUE
14S,Female,Neutral,21.59590043923868,TRUE
14S,Female,Negative,-82.35724743777453,TRUE
14S,Female,Neutral,0.3660322108345326,FALSE
14S,Female,Neutral,-0.3660322108345326,FALSE
14S,Female,Neutral,1.830161054172748,FALSE
14S,Female,Negative,-77.23279648609079,TRUE
14S,Female,Neutral,63.68960468521232,FALSE
14S,Female,Neutral,58.19912152269399,TRUE
14S,Female,Negative,-87.84773060029283,TRUE
14S,Female,Negative,-100,TRUE
14S,Female,Neutral,-1.464128843338216,FALSE
14S,Female,Negative,-42.45973645680819,FALSE
14S,Female,Negative,-64.42166910688141,FALSE
14S,Female,Negative,-84.55344070278184,FALSE
14S,Female,Neutral,49.04831625183016,FALSE
14S,Female,Negative,-34.7730600292826,TRUE
14S,Female,Negative,-77.96486090775988,FALSE
14S,Female,Neutral,0,FALSE
14S,Female,Neutral,20.86383601756955,TRUE
14S,Female,Neutral,20.49780380673498,FALSE
14S,Female,Neutral,0.3660322108345326,TRUE
14S,Female,Neutral,36.23718887262078,TRUE
14S,Female,Neutral,-1.830161054172748,FALSE
14S,Female,Negative,-54.53879941434847,TRUE
14S,Female,Negative,-95.53440702781846,TRUE
14S,Female,Negative,-40.99560761346996,TRUE
14S,Female,Negative,-32.57686676427527,FALSE
14S,Female,Negative,-30.38067349926794,FALSE
14S,Female,Negative,-81.62518301610541,FALSE
14S,Female,Neutral,21.22986822840409,FALSE
14S,Female,Negative,-56.00292825768667,FALSE
14S,Female,Neutral,4.026354319180086,FALSE
14S,Female,Negative,-61.12737920937042,TRUE
14S,Female,Negative,-61.12737920937042,FALSE
14S,Female,Neutral,24.15812591508053,TRUE
14S,Female,Neutral,-1.830161054172748,FALSE
14S,Female,Neutral,1.464128843338216,FALSE
14S,Female,Negative,-40.2635431918009,FALSE
14S,Female,Neutral,4.026354319180086,FALSE
14S,Female,Negative,-20.13177159590045,TRUE
14S,Female,Neutral,1.098096632503641,TRUE
14S,Female,Neutral,50.5124450951684,FALSE
14S,Female,Negative,-30.74670571010247,TRUE
14S,Female,Neutral,0,FALSE
14S,Female,Negative,-72.84040995607612,FALSE
15S,Female,Neutral,30.72916666666666,TRUE
15S,Female,Negative,-26.04166666666666,FALSE
15S,Female,Neutral,-2.604166666666657,TRUE
15S,Female,Neutral,-2.604166666666657,TRUE
15S,Female,Negative,-67.70833333333333,FALSE
15S,Female,Neutral,-1.5625,TRUE
15S,Female,Neutral,2.083333333333343,FALSE
15S,Female,Negative,3.125,FALSE
15S,Female,Negative,-71.35416666666667,TRUE
15S,Female,Neutral,-1.041666666666657,FALSE
15S,Female,Negative,-33.85416666666666,FALSE
15S,Female,Neutral,-1.5625,FALSE
15S,Female,Negative,2.083333333333343,FALSE
15S,Female,Neutral,-35.9375,FALSE
15S,Female,Neutral,-0.5208333333333428,FALSE
15S,Female,Neutral,1.041666666666657,FALSE
15S,Female,Neutral,25,FALSE
15S,Female,Negative,-50.52083333333333,TRUE
15S,Female,Neutral,11.97916666666666,FALSE
15S,Female,Negative,-1.041666666666657,FALSE
15S,Female,Negative,-1.5625,FALSE
15S,Female,Neutral,2.083333333333343,FALSE
15S,Female,Negative,-83.33333333333333,FALSE
15S,Female,Neutral,0,FALSE
15S,Female,Neutral,-4.6875,FALSE
15S,Female,Neutral,-3.125,FALSE
15S,Female,Negative,-100,TRUE
15S,Female,Negative,-100,TRUE
15S,Female,Neutral,1.041666666666657,FALSE
15S,Female,Neutral,3.125,FALSE
15S,Female,Negative,-78.125,FALSE
15S,Female,Negative,-78.64583333333333,TRUE
15S,Female,Neutral,0.5208333333333428,TRUE
15S,Female,Neutral,1.041666666666657,FALSE
15S,Female,Negative,-72.39583333333333,FALSE
15S,Female,Neutral,-1.041666666666657,FALSE
15S,Female,Neutral,-0.5208333333333428,FALSE
15S,Female,Negative,-73.4375,TRUE
15S,Female,Negative,-88.54166666666667,TRUE
15S,Female,Negative,-100,TRUE
15S,Female,Negative,-83.33333333333333,TRUE
15S,Female,Neutral,-1.041666666666657,FALSE
15S,Female,Negative,-71.35416666666667,TRUE
15S,Female,Negative,-83.85416666666667,TRUE
15S,Female,Negative,-72.91666666666667,TRUE
15S,Female,Negative,-41.66666666666665,TRUE
15S,Female,Negative,-79.6875,TRUE
15S,Female,Neutral,-5.729166666666657,TRUE
16S,Male,Neutral,43.75,TRUE
16S,Male,Negative,-79.16666666666667,FALSE
16S,Male,Negative,-60.9375,TRUE
16S,Male,Negative,-40.625,FALSE
16S,Male,Neutral,1.5625,FALSE
16S,Male,Neutral,-1.5625,FALSE
16S,Male,Neutral,0,FALSE
16S,Male,Neutral,0.5208333333333428,TRUE
16S,Male,Negative,-20.83333333333334,FALSE
16S,Male,Negative,-15.625,TRUE
16S,Male,Neutral,2.083333333333343,FALSE
16S,Male,Neutral,3.125,TRUE
16S,Male,Neutral,-1.041666666666657,FALSE
16S,Male,Neutral,11.45833333333334,FALSE
16S,Male,Negative,-14.0625,FALSE
16S,Male,Negative,-78.125,TRUE
16S,Male,Negative,-75,TRUE
16S,Male,Negative,-86.97916666666667,TRUE
16S,Male,Negative,2.604166666666657,TRUE
16S,Male,Negative,-50.52083333333333,TRUE
16S,Male,Negative,-42.1875,TRUE
16S,Male,Neutral,20.3125,FALSE
16S,Male,Negative,-51.5625,TRUE
16S,Male,Neutral,0,FALSE
16S,Male,Negative,-61.97916666666667,FALSE
16S,Male,Negative,-46.875,TRUE
16S,Male,Neutral,1.041666666666657,FALSE
16S,Male,Negative,-87.5,FALSE
16S,Male,Neutral,0,FALSE
16S,Male,Neutral,32.29166666666666,FALSE
16S,Male,Neutral,1.5625,FALSE
16S,Male,Negative,-42.1875,FALSE
16S,Male,Negative,-38.54166666666665,TRUE
16S,Male,Negative,-19.79166666666666,TRUE
16S,Male,Neutral,0,FALSE
16S,Male,Neutral,0,FALSE
16S,Male,Neutral,-1.041666666666657,FALSE
16S,Male,Negative,-44.27083333333335,FALSE
16S,Male,Negative,-67.70833333333333,TRUE
16S,Male,Neutral,0.5208333333333428,FALSE
16S,Male,Neutral,-5.729166666666657,TRUE
16S,Male,Neutral,0.5208333333333428,FALSE
16S,Male,Neutral,1.5625,FALSE
16S,Male,Neutral,2.604166666666657,FALSE
16S,Male,Negative,-39.0625,FALSE
16S,Male,Negative,-24.47916666666666,FALSE
16S,Male,Negative,-21.35416666666666,TRUE
16S,Male,Neutral,15.625,FALSE
17S,Male,Negative,0,FALSE
17S,Male,Neutral,0.5208333333333428,FALSE
17S,Male,Neutral,0.5208333333333428,FALSE
17S,Male,Negative,-8.333333333333343,FALSE
17S,Male,Negative,1.5625,FALSE
17S,Male,Negative,1.5625,FALSE
17S,Male,Negative,-1.041666666666657,FALSE
17S,Male,Neutral,0.5208333333333428,FALSE
17S,Male,Negative,3.125,TRUE
17S,Male,Neutral,3.645833333333343,FALSE
17S,Male,Negative,0.5208333333333428,TRUE
17S,Male,Neutral,66.66666666666666,FALSE
17S,Male,Negative,-8.854166666666657,FALSE
17S,Male,Neutral,13.02083333333334,TRUE
17S,Male,Negative,-7.8125,FALSE
17S,Male,Negative,3.125,TRUE
17S,Male,Negative,1.5625,FALSE
17S,Male,Neutral,0.5208333333333428,FALSE
17S,Male,Neutral,11.97916666666666,TRUE
17S,Male,Negative,1.041666666666657,FALSE
17S,Male,Neutral,19.27083333333334,TRUE
17S,Male,Negative,-16.14583333333334,FALSE
17S,Male,Neutral,0,FALSE
17S,Male,Negative,-0.5208333333333428,TRUE
17S,Male,Neutral,-2.604166666666657,FALSE
17S,Male,Neutral,2.083333333333343,TRUE
17S,Male,Neutral,1.041666666666657,FALSE
17S,Male,Negative,-2.604166666666657,FALSE
17S,Male,Neutral,10.9375,FALSE
17S,Male,Neutral,2.083333333333343,FALSE
17S,Male,Neutral,1.041666666666657,FALSE
17S,Male,Neutral,-0.5208333333333428,FALSE
17S,Male,Neutral,2.604166666666657,FALSE
17S,Male,Negative,3.645833333333343,FALSE
17S,Male,Negative,5.208333333333343,FALSE
17S,Male,Neutral,4.166666666666657,TRUE
17S,Male,Negative,1.041666666666657,FALSE
17S,Male,Negative,-0.5208333333333428,FALSE
17S,Male,Neutral,-4.166666666666657,FALSE
17S,Male,Neutral,-0.5208333333333428,FALSE
17S,Male,Negative,-1.5625,TRUE
17S,Male,Negative,0,FALSE
17S,Male,Negative,-2.604166666666657,FALSE
17S,Male,Neutral,1.041666666666657,FALSE
17S,Male,Negative,-8.333333333333343,TRUE
17S,Male,Neutral,-0.5208333333333428,TRUE
17S,Male,Neutral,2.604166666666657,FALSE
17S,Male,Negative,-1.041666666666657,FALSE
18S,Male,Neutral,47.58418740849194,FALSE
18S,Male,Neutral,-15.00732064421668,FALSE
18S,Male,Neutral,-0.3660322108345326,FALSE
18S,Male,Negative,-52.34260614934114,FALSE
18S,Male,Neutral,88.94582723279649,FALSE
18S,Male,Neutral,73.2064421669107,FALSE
18S,Male,Neutral,1.098096632503641,FALSE
18S,Male,Negative,-83.08931185944364,FALSE
18S,Male,Negative,-76.86676427525623,FALSE
18S,Male,Negative,-18.30161054172765,FALSE
18S,Male,Negative,-46.48609077598831,FALSE
18S,Male,Negative,-58.56515373352855,FALSE
18S,Male,Neutral,1.464128843338216,FALSE
18S,Male,Negative,-70.27818448023426,FALSE
18S,Male,Neutral,50.87847730600294,FALSE
18S,Male,Neutral,-39.53147877013179,FALSE
18S,Male,Neutral,-42.82576866764276,TRUE
18S,Male,Negative,-73.20644216691068,FALSE
18S,Male,Neutral,1.098096632503641,FALSE
18S,Male,Negative,47.95021961932648,FALSE
18S,Male,Negative,-83.08931185944364,TRUE
18S,Male,Negative,-87.11566617862371,FALSE
18S,Male,Neutral,0.3660322108345326,FALSE
18S,Male,Negative,0.7320644216691079,FALSE
18S,Male,Negative,-67.34992679355783,FALSE
18S,Male,Negative,-81.99121522693997,TRUE
18S,Male,Negative,-71.37628111273793,FALSE
18S,Male,Negative,-89.6778916544656,FALSE
18S,Male,Neutral,7.686676427525626,FALSE
18S,Male,Negative,-60.39531478770132,FALSE
18S,Male,Negative,-61.49341142020497,FALSE
18S,Male,Negative,-94.80234260614935,FALSE
18S,Male,Neutral,67.7159590043924,TRUE
18S,Male,Negative,-100,TRUE
18S,Male,Negative,-100,FALSE
18S,Male,Neutral,83.45534407027819,TRUE
18S,Male,Neutral,25.25622254758417,FALSE
18S,Male,Neutral,-2.562225475841856,FALSE
18S,Male,Neutral,0,FALSE
18S,Male,Negative,-96.99853587115666,FALSE
18S,Male,Neutral,67.34992679355781,FALSE
18S,Male,Neutral,-1.830161054172748,TRUE
18S,Male,Negative,-94.80234260614935,TRUE
18S,Male,Neutral,81.62518301610538,TRUE
18S,Male,Neutral,47.58418740849194,FALSE
18S,Male,Neutral,27.81844802342607,TRUE
18S,Male,Negative,-94.07027818448024,TRUE
18S,Male,Neutral,-0.3660322108345326,FALSE
19S,Male,Neutral,54.16666666666666,FALSE
19S,Male,Neutral,3.125,FALSE
19S,Male,Negative,-100,TRUE
19S,Male,Neutral,1.5625,FALSE
19S,Male,Negative,-95.83333333333333,TRUE
19S,Male,Negative,-8.333333333333343,FALSE
19S,Male,Negative,-92.1875,FALSE
19S,Male,Neutral,-0.5208333333333428,FALSE
19S,Male,Neutral,21.875,FALSE
19S,Male,Negative,-58.85416666666667,FALSE
19S,Male,Neutral,2.604166666666657,FALSE
19S,Male,Neutral,24.47916666666666,FALSE
19S,Male,Negative,-65.625,FALSE
19S,Male,Negative,0,TRUE
19S,Male,Neutral,2.083333333333343,FALSE
19S,Male,Neutral,0,FALSE
19S,Male,Neutral,-7.8125,FALSE
19S,Male,Neutral,8.854166666666657,FALSE
19S,Male,Neutral,0.5208333333333428,FALSE
19S,Male,Negative,-26.04166666666666,TRUE
19S,Male,Neutral,0.5208333333333428,FALSE
19S,Male,Neutral,12.5,FALSE
19S,Male,Neutral,89.0625,FALSE
19S,Male,Negative,-100,FALSE
19S,Male,Negative,-84.89583333333333,FALSE
19S,Male,Neutral,39.0625,TRUE
19S,Male,Negative,-89.0625,FALSE
19S,Male,Neutral,0,FALSE
19S,Male,Neutral,-2.083333333333343,FALSE
19S,Male,Negative,-18.75,FALSE
19S,Male,Negative,-78.125,FALSE
19S,Male,Neutral,46.35416666666666,FALSE
19S,Male,Neutral,0,FALSE
19S,Male,Negative,-90.625,FALSE
19S,Male,Negative,-14.0625,FALSE
19S,Male,Negative,-19.27083333333334,FALSE
19S,Male,Negative,-66.14583333333333,TRUE
19S,Male,Neutral,-2.604166666666657,FALSE
19S,Male,Negative,-67.1875,FALSE
19S,Male,Negative,-52.08333333333333,FALSE
19S,Male,Negative,-50,TRUE
19S,Male,Neutral,34.89583333333334,TRUE
19S,Male,Negative,-54.6875,FALSE
19S,Male,Negative,-87.5,TRUE
19S,Male,Neutral,21.35416666666666,FALSE
19S,Male,Neutral,52.08333333333334,FALSE
19S,Male,Negative,-16.14583333333334,FALSE
19S,Male,Negative,-95.3125,TRUE
